STAT 227: Statistical Design and Analysis
…
---

# `flights` Data Frame

Run the following:

```r
flights
```

```
# A tibble: 336,776 x 19
    year month   day dep_time sched_dep_time dep_delay arr_time sched_arr_time
   <int> <int> <int>    <int>          <int>     <dbl>    <int>          <int>
 1  2013     1     1      517            515         2      830            819
 2  2013     1     1      533            529         4      850            830
 3  2013     1     1      542            540         2      923            850
 4  2013     1     1      544            545        -1     1004           1022
 5  2013     1     1      554            600        -6      812            837
 6  2013     1     1      554            558        -4      740            728
 7  2013     1     1      555            600        -5      913            854
 8  2013     1     1      557            600        -3      709            723
 9  2013     1     1      557            600        -3      838            846
10  2013     1     1      558            600        -2      753            745
# … with 336,766 more rows, and 11 more variables: arr_delay <dbl>,
#   carrier <chr>, flight <int>, tailnum <chr>, origin <chr>, dest <chr>,
#   air_time <dbl>, distance <dbl>, hour <dbl>, minute <dbl>, time_hour <dttm>
```
…
You might have to click **Update** on this screen if you don't see anything in the main window. 

<img src="import_data2.png" width="70%" />

---

# Importing Datasets

```r
gapminder2007
```

```
# A tibble: 140 x 4
   country     continent lifeExp gdpPercap
   <chr>       <chr>       <dbl>     <dbl>
 1 Afghanistan Asia         43.8      975.
 2 Albania     Europe       76.4     5937.
 3 Algeria     Africa       72.3     6223.
 4 Angola      Africa       42.7     4797.
 5 Argentina   Americas     75.3    12779.
 6 Austria     Europe       79.8    36126.
 7 Bahrain     Asia         75.6    29796.
 8 Bangladesh  Asia         64.1     1391.
 9 Belgium     Europe       79.4    33693.
10 Benin       Africa       56.7     1441.
# … with 130 more rows
```
…
