STAT 227: Statistical Design and Analysis
…
- Meanwhile, the *Mythbusters* team watched via hidden camera to see if each participant yawned. 

---

# `mythbusters_yawn`

The results of the experiment are available in the `mythbusters_yawn` dataset from the `moderndive` package:

```r
mythbusters_yawn
```

```
# A tibble: 50 x 3
    subj group   yawn 
   <int> <chr>   <chr>
 1     1 seed    yes  
 2     2 control yes  
 3     3 seed    no   
 4     4 seed    yes  
 5     5 seed    no   
 6     6 control no   
 7     7 seed    yes  
 8     8 control no   
 9     9 control no   
10    10 seed    no   
# … with 40 more rows
```
…
`\(H_{a}\)`: `\(\mu_{1}\neq \mu_{2}\)` (or `\(<\)`, `\(>\)` depending on the context)

---

# Action vs. Romance Movies

The `movies_sample` dataset contains a sample of 200 *action* and *romance* movies, along with their title, year of release, and IMDB.com rating. 

```r
movies_sample
```

```
# A tibble: 200 x 4
   title                        year rating genre 
   <chr>                       <dbl>  <dbl> <chr> 
 1 Sinnui yauman III: Do Do Do  1991    7   Action
 2 Thunderpoint                 1998    7   Action
 3 Navajo Blues                 1996    3   Action
 4 Steel and Lace               1991    5.4 Action
 5 Joi gin a long               1999    6.6 Action
 6 Collectors, The              1999    3.8 Action
 7 Lawless Empire               1945    5.1 Action
 8 City on Fire                 1979    3.4 Action
 9 Lost at Sea                  1995    5.8 Action
10 Last of the Finest, The      1990    5.2 Action
# … with 190 more rows
```
…
```r
null_distribution
```

```
Response: response (factor)
Explanatory: college_grad (factor)
Null Hypothesis: independence
# A tibble: 1,000 x 2
   replicate     stat
       <int>    <dbl>
 1         1 -0.0217 
 2         2 -0.0217 
 3         3  0.0706 
 4         4 -0.0119 
 5         5  0.0366 
 6         6  0.0220 
 7         7 -0.00224
 8         8  0.00261
 9         9 -0.0459 
10        10  0.00747
# … with 990 more rows
```
…
