STAT 227: Statistical Design and Analysis
…
# Zodiac Signs

Does your zodiac sign predict how successful you will be?

The `Zodiac.csv` dataset (downloadable from the online campus) contains data from a study conducted by *Fortune* magazine. 

- Data consist of zodiac signs of 256 heads of the largest 400 companies

```r
Zodiac
```

```
## # A tibble: 256 x 1
##    Sign  
##    <chr> 
##  1 Pisces
##  2 Pisces
##  3 Pisces
##  4 Pisces
##  5 Pisces
##  6 Pisces
##  7 Pisces
##  8 Pisces
##  9 Pisces
## 10 Pisces
## # … with 246 more rows
```
…
---

# Exploratory Data Analysis

We are interested in the relationship between **political party** and **opinions on space funding**.
- Data are located in the `party` and `NASA` variables.

```r
select(gss, party, NASA)
```

```
# A tibble: 149 x 2
   party NASA       
   <chr> <chr>      
 1 Ind   TOO LITTLE 
 2 Ind   ABOUT RIGHT
 3 Dem   ABOUT RIGHT
 4 Ind   TOO LITTLE 
 5 Ind   TOO MUCH   
 6 Ind   TOO LITTLE 
 7 Ind   ABOUT RIGHT
 8 Dem   ABOUT RIGHT
 9 Dem   TOO LITTLE 
10 Ind   TOO LITTLE 
# … with 139 more rows
```
…
