STAT 227: Statistical Design and Analysis
…
class: center, middle, frame

# Bootstrapping

---

# `pennies_sample`

```r
pennies_sample
```

```
# A tibble: 50 x 2
      ID  year
   <int> <dbl>
 1     1  2002
 2     2  1986
 3     3  2017
 4     4  1988
 5     5  2008
 6     6  1983
 7     7  2008
 8     8  1996
 9     9  2004
10    10  2000
# … with 40 more rows
```
…
---

# Step 1: `specify()`

The `specify()` function is used primarily to choose which variables will be the focus of the statistical inference.
- This is done using the `response = ` argument:

```r
pennies_sample %>%
  specify(response = year)
```

```
Response: year (numeric)
# A tibble: 50 x 1
    year
   <dbl>
 1  2002
 2  1986
 3  2017
 4  1988
 5  2008
 6  1983
 7  2008
 8  1996
 9  2004
10  2000
# … with 40 more rows
```
…
