MATH 227: Statistical Design and Analysis
…
---

# What's going on here?

.pull-left[

```
Response: lifeExp (numeric)
Explanatory: continent (factor)
Null Hypothesis: independence
# A tibble: 140 x 3
# Groups:   replicate [1]
   lifeExp continent replicate
     <dbl> <fct>         <int>
 1    79.8 Asia              1
 2    64.2 Europe            1
 3    72.9 Africa            1
 4    67.3 Africa            1
 5    78.3 Americas          1
 6    62.7 Europe            1
 7    76.2 Asia              1
 8    52.5 Asia              1
 9    80.9 Europe            1
10    71.3 Africa            1
# … with 130 more rows
```
…
