STAT 227: Statistical Design and Analysis
…
--

The `bowl` data frame in the `moderndive` R package contains data on a "population" (or a *virtual bowl*) of red and white balls. 
- We will use R to collect *virtual samples*. 

---

# A "Population"

```r
bowl
```

```
# A tibble: 2,400 x 2
   ball_ID color
     <int> <chr>
 1       1 white
 2       2 white
 3       3 white
 4       4 red  
 5       5 white
 6       6 white
 7       7 red  
 8       8 white
 9       9 red  
10      10 white
# … with 2,390 more rows
```
…
